{
	"001": {"name":"You", "expression":"neutral","text":"Hi! Are you Mr. Chainani?"},
	"002": {"name":"Mr. Nani", "expression":"neutral","text":"Uh... You must have mistaken me for someone else."},
	"003": {"name":"Mr. Nani", "expression":"neutral","text":"Nice to meet you! I am Mr. Nani!"},
	"004": {"name":"You", "expression":"neutral","text":"..."}
}
